Nome,Idade,Rua,Número,Cidade,UF
João da Silva,23,Av. das Couves,123,São Paulo,SP
Antônio Grilo,32,Rua da Feira,33,Sorocaba,SP
Marcus Pereira,28,Rua da Várzea,42,Macaé,RJ
Felipa dos Santos,20,Av. Brasil,147,Salvador,BA
Maria Antonieta,45,Av. das Flores,1234,Osasco,SP
Sofia Boole,19,Rua das Camélias,768,Itatiaia,RJ
Adriano Campos,27,Rua Direita,98,Manaus,AM
José Andrade,42,Av. do Quilombo,765,Olinda,PE
Sérgio Patinhas,33,Av. Disney,54,Patópolis,MG